{
  "dev": {
    "host": "localhost",
    "port": 6379,
    "username": "",
    "password": "",
    "db": 5,
    "secret":"ganapasnyeremin!",
    "sessionName":"sessionAdmin"
  },
  "production":{
    "host": "192.168.0.4",
    "port": 6379,
    "username": "",
    "password": "",
    "db": 5,
    "secret":"ganapasnyeremin!",
    "sessionName":"sessionAdmin"
  }
}